…
    SW.ag

    ## # A tibble: 280 × 10
    ##    Measure.Date Calib.Date  Exposure    Tank Treatment Temperature pH.MV
    ##           <int>      <int>     <chr>   <chr>     <chr>       <dbl> <dbl>
    ## 1      20160930   20160930 Exposure1      A1   Ambient       13.96 -38.6
    ## 2      20160930   20160930 Exposure1      A2   Ambient       14.14 -43.7
    ## 3      20160930   20160930 Exposure1      A3   Ambient       14.44 -44.2
    ## 4      20160930   20160930 Exposure1      A4   Ambient       14.29 -43.4
    ## 5      20160930   20160930 Exposure1      B1   Ambient       14.40 -44.1
    ## 6      20160930   20160930 Exposure1      B2   Ambient       14.43 -43.6
    ## 7      20160930   20160930 Exposure1      B3   Ambient       14.53 -45.0
    ## 8      20160930   20160930 Exposure1      B4   Ambient       14.49 -45.8
    ## 9      20160930   20160930 Exposure1 Header1   Ambient       15.09 -58.0
    ## 10     20160930   20160930 Exposure1 Header2   Ambient       15.00 -58.1
    ## # ... with 270 more rows, and 3 more variables: Salinity <dbl>, TA <chr>,
    ## #   Notes <chr>
…
